{"ncbras": {"1858": 7, "1859": 18, "1860": 10, "1864": 14, "1865": 14, "1866": 12, "1867": 13, "1868": 9, "1869": 12, "1871": 13, "1874": 9, "1875": 8, "1876": 5, "1877": 5, "1878": 10, "1879": 3, "1880": 3, "1881": 5, "1882": 6, "1883": 8, "1884": 8, "1885": 11, "1886": 15, "1887": 11, "1888": 8, "1889": 8, "1890": 2, "1891": 4, "1892": 6, "1893": 2, "1895": 5, "1896": 6, "1898": 4, "1900": 10, "1902": 3, "1903": 5, "1905": 7, "1906": 6, "1907": 4, "1908": 1, "1909": 4, "1910": 4, "1911": 2, "1912": 6, "1913": 7, "1914": 13, "1915": 9, "1916": 9, "1917": 15, "1918": 12, "1919": 13, "1920": 9, "1921": 11, "1922": 16, "1923": 18, "1924": 12, "1925": 12, "1926": 13, "1927": 9, "1928": 16, "1929": 10, "1930": 14, "1931": 15, "1932": 10, "1935": 8, "1936": 20, "1937": 4, "1938": 5, "1939": 5, "1940": 8}}
{"reports-fr" : {"1893": 137, "1900": 196, "1901": 218, "1902": 480, "1904": 247, "1905": 302, "1906": 284, "1907": 452, "1908": 523, "1909": 283, "1910": 169, "1911": 190, "1912": 221, "1913": 183, "1914": 169, "1915": 144, "1916": 168, "1917": 214, "1918": 188, "1919": 193, "1920": 287, "1921": 262, "1922": 351, "1923": 387, "1924": 358, "1925": 320, "1926": 358, "1929": 380, "1932": 39, "1933": 37, "1934": 39, "1935": 39, "1936": 40, "1939": 326, "1940": 298}}
{"reports-en" : {"1892": 375, "1893": 426, "1895": 454, "1896": 382, "1897": 440, "1898": 431, "1899": 413, "1900": 481, "1901": 550, "1902": 480, "1903": 447, "1905": 446, "1906": 520, "1907": 297, "1908": 526, "1911": 518, "1914": 517, "1917": 594, "1920": 531, "1922": 527, "1923": 535, "1924": 481, "1925": 544, "1926": 137, "1927": 513, "1928": 487, "1929": 469, "1930": 526, "1931": 962, "1933": 881, "1935": 453, "1936": 464, "1937": 462, "1938": 485, "1939": 423, "1940": 867, "1942": 187}}
{"zhanggangdiary" : {"1888": 91, "1901": 14, "1916": 2}}
{"imh-en" : {"1906-7": 2188, "1907-8": 2523, "1908": 326, "1917": 401, "1918": 59, "1920": 153, "1922": 2123, "1924": 1773, "1925": 2015, "1927": 1340, "1928": 84, "1931": 960, "1933": 699, "1935": 527, "1936": 1477, "1937": 87, "1940": 331, "1944": 280, "1950": 881}}
{"imh-zh" :{"1916": 452, "1917": 401, "1918": 5337, "1924": 403, "1925": 209, "1928": 5158, "1930": 100, "1931": 4206, "1935": 276, "1936": 6081, "1937": 87, "1940": 5081, "1941": 25853, "1942": 1621, "1944": 280, "1945": 6864, "1947": 1647, "1948": 2859, "1955": 6466, "1963": 8050, "1987": 3352, "2002": 3428, "UNK": 5285}}
{"dongfangzz" : {"1904": 241, "1905": 1757, "1906": 1191, "1907": 834, "1908": 888, "1909": 958, "1910": 631, "1911": 1473, "1912": 1079, "1913": 1116, "1914": 502, "1915": 1432, "1916": 1361, "1917": 1417, "1918": 1701, "1919": 1715, "1920": 3089, "1921": 2960, "1922": 3148, "1923": 2495, "1924": 2363, "1925": 2922, "1926": 2367, "1927": 2125, "1928": 2425, "1929": 2033, "1930": 1885, "1931": 1998, "1932": 764, "1933": 5831, "1934": 6377, "1935": 4597, "1936": 4637, "1937": 2737, "1938": 3126, "1939": 2450, "1940": 1548, "1941": 1471, "1943": 696, "1944": 637, "1945": 724, "1946": 1309, "1947": 553, "1948": 244}}
{"shunpao" : {"1872": 7390, "1873": 5200, "1874": 5181, "1875": 6511, "1876": 6118, "1877": 6090, "1878": 6814, "1879": 7743, "1880": 8097, "1881": 8193, "1882": 10340, "1883": 9460, "1884": 12342, "1885": 14045, "1886": 15161, "1887": 12005, "1888": 10405, "1889": 13292, "1890": 11970, "1891": 9810, "1892": 10592, "1893": 13701, "1894": 14369, "1895": 10316, "1896": 9967, "1897": 13351, "1898": 14630, "1899": 13185, "1900": 14514, "1901": 14594, "1902": 13491, "1903": 14643, "1904": 16240, "1905": 22971, "1906": 25755, "1907": 29343, "1908": 31428, "1909": 27048, "1910": 34355, "1911": 27929, "1912": 27208, "1913": 25137, "1914": 32097, "1915": 29741, "1916": 30389, "1917": 35230, "1918": 42494, "1919": 38180, "1920": 37494, "1921": 39245, "1922": 47652, "1923": 54325, "1924": 56533, "1925": 58605, "1926": 71046, "1927": 60246, "1928": 63736, "1929": 70413, "1930": 66842, "1931": 63260, "1932": 56028, "1933": 75685, "1934": 82445, "1935": 79772, "1936": 74611, "1937": 41073, "1938": 4737, "1939": 12621, "1940": 37352, "1941": 34931, "1942": 25400, "1943": 24145, "1944": 15300, "1945": 14858, "1946": 59395, "1947": 61509, "1948": 53729, "1949": 15963}}
{"proquest" : {"1832": 97, "1833": 148, "1834": 102, "1835": 95, "1836": 106, "1837": 117, "1838": 102, "1839": 87, "1840": 109, "1841": 93, "1842": 93, "1843": 92, "1844": 71, "1845": 87, "1846": 95, "1847": 96, "1848": 79, "1849": 80, "1850": 513, "1851": 1025, "1852": 1039, "1853": 1034, "1854": 877, "1855": 1004, "1856": 1075, "1857": 1096, "1858": 1159, "1859": 1276, "1860": 1270, "1861": 1103, "1862": 889, "1863": 924, "1864": 1007, "1865": 905, "1866": 1182, "1867": 1505, "1868": 1868, "1869": 1267, "1870": 2044, "1871": 2071, "1872": 2009, "1873": 2331, "1874": 2603, "1875": 2745, "1876": 2815, "1877": 2476, "1878": 2609, "1879": 2349, "1880": 2421, "1881": 2325, "1882": 2663, "1883": 2514, "1884": 2393, "1885": 2225, "1886": 2164, "1887": 2146, "1888": 2513, "1889": 2466, "1890": 2508, "1891": 2966, "1892": 3218, "1893": 3407, "1894": 3554, "1895": 3811, "1896": 3719, "1897": 3794, "1898": 4213, "1899": 4260, "1900": 4867, "1901": 4739, "1902": 4587, "1903": 7723, "1904": 40402, "1905": 47158, "1906": 50356, "1907": 51614, "1908": 50235, "1909": 51560, "1910": 52668, "1911": 48747, "1912": 49585, "1913": 53926, "1914": 68576, "1915": 80458, "1916": 87642, "1917": 87288, "1918": 74585, "1919": 90023, "1920": 85757, "1921": 62537, "1922": 58988, "1923": 68300, "1924": 72627, "1925": 97101, "1926": 115335, "1927": 120181, "1928": 132833, "1929": 134168, "1930": 124384, "1931": 139480, "1932": 145395, "1933": 154792, "1934": 158768, "1935": 161492, "1936": 165929, "1937": 159558, "1938": 148177, "1939": 112125, "1940": 95920, "1941": 91493, "1945": 13617, "1946": 63692, "1947": 69563, "1948": 86614, "1949": 95667, "1950": 94407, "1951": 89822, "1952": 98942, "1953": 104313, "1954": 107840, "1955": 111432, "1956": 115830, "1957": 114646, "1958": 117789, "1959": 112631, "1960": 115997, "1961": 115764, "1962": 123722, "1963": 122241, "1964": 119162, "1965": 116060, "1966": 114478, "1967": 118508, "1968": 118024, "1969": 127651, "1970": 129404, "1971": 127612, "1972": 126882, "1973": 128540, "1974": 133746, "1975": 136136, "1976": 138039, "1977": 148190, "1978": 151450, "1979": 148887, "1980": 155722, "1981": 166531, "1982": 161909, "1983": 155755, "1984": 118617, "1985": 121503, "1986": 126457, "1987": 118888, "1988": 131399, "1989": 145926, "1990": 144616, "1991": 146435, "1992": 149808, "1993": 149185, "1994": 153663, "1995": 155979, "1996": 161595, "1997": 159110, "1998": 150995}}





